anime	status	rate	chapter	start date	finish date	times reread
Chainsaw Man	Reading	N/A	3	2022-10-26	N/A	
Yofukashi no Uta	Reading	N/A	13	2022-07-12	N/A	0
Spy X Family	Reading	N/A	13	2022-04-09	N/A	0
Lycoris Recoil	Reading	N/A	12	2022-07-02	N/A	0
Kami Kuzu Idol	Completed	N/A	10	2022-07-01	2022-09-16	0
Engage kiss	Reading	N/A	9	2022-07-10	N/A	0
Hanabi-chan wa Okuregachi	Reading	N/A	8	2022-07-10	N/A	0
Tokyo mew mew new	Reading	N/A	8	2022-07-12	N/A	0
Kakkou no iinazuke	Reading	N/A	17	2022-05-30	N/A	0
Tomadachi game	Completed	N/A	12	2022-04-05	2022-06-29	0
Deaimon	Completed	N/A	12	2022-04-13	2022-06-29	0
Gunjou no fanfare	Dropped	N/A	5	2022-04-02	2022-05-30	0
Aharen-san wa hakarenai	Dropped	N/A	2	2022-04-04	2022-05-30	0
InuYasha	Rereading	7	56	2022-05-24	N/A	1
Kimi no suizou wo tabetai	Completed	N/A	1	2022-05-16	2022-05-16	0
Rosario to Vampire	Completed	4	13	2022-03-31	2022-04-02	1
Police in a pod	Completed	8	13	2022-01-13	2022-03-30	0
My Dress-up Darling	Completed	7	12	2022-02-06	2022-03-26	0
Slow loop	Completed	6	12	2022-02-06	2022-03-25	0
Nazo no Kanojo X	Completed	9	13	2022-03-10	2022-03-10	4
3-Gatsu no Lion	Paused	9	44	2022-01-27	2022-01-31	0
Detective Conan	Paused	9	1035	2021-11-21	2022-01-21	0
Detective Conan Movies	Paused	N/A	24	2021-12-05	2022-01-25	0
Subete ga F ni Naru: The Perfect Insider	Reading	N/A	10	2022-01-14	N/A	0
Detective Conan: Episode one	Completed	8	1	2022-01-17	2022-01-17	0
The Disappearance of Conan Edogawa	Completed	7	1	2022-01-17	2022-01-17	0
Kaitou kid	Paused	N/A	6	2021-12-04	N/A	0
Detective Conan ovas	Paused	N/A	12	2022-01-02	2022-01-12	0
Platinum end	Dropped	6	11	2021-10-24	2022-01-02	0
My senpai is annoying	Completed	7	12	2021-11-01	2021-12-26	0
Blue period	Completed	9	12	2021-10-24	2021-12-11	0
Ganbare Douki-chan	Completed	N/A	12	2021-10-10	2021-12-08	0
Grand blue	Plan to read	N/A	0	N/A	N/A	0
Sayonara Zetsubou-sensei	Completed	7	12	2021-11-13	2021-11-14	0
Noucome	Completed	6	10	2013-10-10	2014-12-12	0
Rascal Does Not Dream of a Dreaming Girl	Completed	9	1	2021-11-13	2021-11-13	0
Rascal Does Not Dream of Bunny Girl Senpai	Completed	7	13	2021-11-08	2021-11-10	0
Higashi no Eden	Completed	7	11	2021-10-30	2021-10-30	1
Parasyte	Completed	7	24	2021-10-26	2021-10-27	1
Tokyo Revange	Dropped	N/A	1	2021-10-08	2021-10-08	0
Toki wo Kakeru Shoujo	Dropped	N/A	0	N/A	2013-01-01	0
Shigatsu wa Kimi no Uso	Plan to read	N/A	0	N/A	N/A	0
Psycho-pass 2	Completed	7	11	N/A	2014-01-01	0
Psycho-pass	Completed	8	22	N/A	2014-01-01	1
Nichijou	Plan to read	N/A	0	N/A	N/A	0
Paranoia Agent	Plan to read	N/A	0	N/A	N/A	0
Metropolis	Plan to read	N/A	0	N/A	N/A	0
Kemonozume	Plan to read	N/A	0	N/A	N/A	0
Kamisama Hajimemashita◎	Completed	7	12	N/A	2014-01-01	0
Cowboy Bebop	Plan to read	N/A	0	N/A	N/A	0
Charlotte	Plan to read	N/A	0	N/A	N/A	0
Tonari no Kaibutsu-kun	Dropped	N/A	5	N/A	N/A	0
Sword Art Online II	Dropped	N/A	2	N/A	N/A	0
Shugo Chara!	Completed	6	51	N/A	2013-01-01	0
Shingeki no Kyojin	Dropped	N/A	7	N/A	N/A	0
serial experiments lain	Completed	9	13	N/A	2015-01-01	0
Ouran Koukou Host Club	Dropped	N/A	2	N/A	N/A	0
Log Horizon	Dropped	N/A	1	N/A	N/A	0
Kuroshitsuji	Dropped	N/A	2	N/A	N/A	0
Kamisama no Memochou	Dropped	N/A	1	N/A	N/A	0
Higurashi no Naku Koro ni	Dropped	N/A	6	N/A	N/A	0
Clannad	Dropped	N/A	5	N/A	N/A	0
Chuunibyou demo Koi ga Shitai!	Dropped	N/A	4	N/A	N/A	0
Baka to Test to Shoukanjuu	Dropped	N/A	7	N/A	N/A	0
Ansatsu Kyoushitsu	Dropped	N/A	5	2015-01-09	2015-01-09	0
Bakemonogatari	Dropped	N/A	0	N/A	N/A	0
Kami nomi zo Shiru Sekai: Tenri-hen	Completed	6	2	N/A	2015-01-01	0
Sword Art Online	Completed	4	25	2012-05-08	2012-12-23	0
Zero no Tsukaima	Completed	5	13	N/A	2013-01-01	0
Yojouhan Shinwa Taikei Specials	Completed	6	3	N/A	N/A	0
Working!!!	Completed	6	13	N/A	2014-01-01	0
Weiß Survive R	Completed	5	12	N/A	2013-01-01	0
Weiß Survive	Completed	5	16	N/A	2013-01-01	0
Tokyo Mew Mew	Completed	6	52	N/A	2013-01-01	0
Sukitte Ii na yo.	Completed	6	13	N/A	2014-01-01	0
Sparrow's Hotel	Completed	6	12	N/A	2013-01-01	0
Sora no Otoshimono	Completed	6	13	N/A	2013-01-01	0
Seikimatsu Occult Gakuin	Completed	6	13	N/A	2014-01-01	0
Nyan Koi!	Completed	6	12	2009-10-02	2009-12-18	0
No Game No Life	Completed	6	12	2014-04-09	2014-06-25	0
Mirai Nikki: Ura Mirai Nikki	Completed	6	10	N/A	2014-01-01	0
Mirai Nikki OVA	Completed	6	1	2014-01-01	2014-01-01	0
Mirai Nikki	Completed	7	26	N/A	2012-01-01	0
Kamisama Hajimemashita	Completed	7	13	N/A	2014-01-01	0
Inu to Hasami wa Tsukaiyou	Completed	6	12	N/A	2014-01-01	0
Hellsing	Completed	6	13	N/A	2015-01-01	0
Hagane no Renkinjutsushi	Completed	6	51	N/A	2015-01-01	0
C: The Money of Soul and Possibility Control	Completed	4	11	2017-04-18	2017-04-18	0
Accel World	Completed	6	24	N/A	2014-01-01	0
Working!!	Completed	7	13	N/A	2014-01-01	0
Toradora!	Completed	7	25	N/A	2013-01-01	0
Tonari no Seki-kun	Completed	7	21	2014-01-06	2014-05-26	0
Toaru Majutsu no Index	Completed	6	24	N/A	2013-01-01	0
Seitokai Yakuindomo＊	Completed	6	13	N/A	2014-01-01	0
Seitokai Yakuindomo	Completed	6	12	N/A	2014-01-01	0
Sakurasou no Pet na Kanojo	Completed	7	24	N/A	2016-01-01	0
Pupipo!	Completed	7	15	2013-12-14	2014-03-21	0
Persona 5 the Animation	Completed	7	26	N/A	2019-01-01	0
Persona 4 the Animation	Completed	7	25	N/A	2016-01-01	0
Perfect Blue	Completed	7	1	2016-01-01	2016-01-01	0
Nourin	Completed	7	12	2014-01-11	2014-03-29	0
Namiuchigiwa no Muromi-san	Completed	7	13	2013-04-07	2013-06-30	0
Monster	Completed	7	74	N/A	2016-01-01	0
Mondaiji-tachi ga Isekai kara Kuru Sou Desu yo?	Completed	6	10	2013-01-11	2013-03-15	0
MM!	Completed	7	12	N/A	2015-01-01	0
Mirai Nikki: Redial	Completed	7	1	2016-07-28	2016-07-28	0
Mayo Chiki!	Completed	6	13	N/A	2015-01-01	0
Mahou Shoujo Madoka☆Magica Movie: Hajimari no Monogatari	Completed	6	1	2015-01-01	2015-01-01	0
Lupin III vs. Meitantei Conan	Completed	7	1	2016-11-22	2016-11-22	0
Lucky☆Star	Completed	7	24	N/A	2013-01-01	0
Koe de Oshigoto!: The ANIMATION	Completed	6	2	N/A	2014-01-01	0
Karigurashi no Arrietty	Completed	7	1	2016-01-01	2016-01-01	0
Kanokon	Completed	6	12	N/A	2015-01-01	0
Kami nomi zo Shiru Sekai: Megami-hen	Completed	7	12	N/A	2015-01-01	0
Kami nomi zo Shiru Sekai II	Completed	7	12	N/A	2015-01-01	0
Kaichou wa Maid-sama!	Completed	7	26	N/A	2016-01-01	0
Hotarubi no Mori e	Completed	7	1	2014-01-01	2014-01-01	0
High School DxD	Completed	7	12	N/A	2012-01-01	0
Green Green	Completed	7	12	N/A	2014-01-01	0
Great Teacher Onizuka	Completed	7	43	N/A	2013-01-01	0
Gin no Saji	Completed	7	11	N/A	2016-01-01	0
Gantz	Completed	7	13	N/A	2013-01-01	0
Gakuen Mokushiroku	Completed	7	12	N/A	2013-01-01	0
Elfen Lied	Completed	7	13	N/A	2012-01-01	0
Denki-Gai no Honya-san	Completed	7	12	N/A	2016-01-01	0
Death Parade	Completed	7	12	2015-01-09	2015-03-27	0
Death Note	Completed	7	37	N/A	2012-01-01	0
Deadman Wonderland: Akai Knife Tsukai	Completed	7	1	2012-01-01	2012-01-01	0
Deadman Wonderland	Completed	7	12	N/A	2012-01-01	0
Date A Live	Completed	7	12	N/A	2016-01-01	0
Danshi Koukousei no Nichijou	Completed	7	12	N/A	2016-01-01	0
Dansai Bunri no Crime Edge	Completed	7	13	N/A	2016-01-01	0
Danganronpa 3: The End of Kibougamine Gakuen - Mirai-hen	Completed	6	12	N/A	2016-11-01	0
Corpse Party: Tortured Souls - Bougyakusareta Tamashii no Jukyou	Completed	6	4	N/A	2016-01-01	0
Cider no You ni Kotoba ga Wakiagaru	Completed	7	1	2021-07-23	2021-07-23	1
Chobits	Completed	7	26	N/A	2012-01-01	0
Cardcaptor Sakura: Kero-chan ni Omakase!	Completed	7	1	2009-01-01	2009-01-01	0
Cardcaptor Sakura Movie 2: Fuinsareta Card	Completed	7	1	2009-01-01	2009-01-01	0
Cardcaptor Sakura Movie 1	Completed	7	1	2009-01-01	2009-01-01	0
Cardcaptor Sakura	Completed	8	70	N/A	2009-01-01	0
Bokusatsu Tenshi Dokuro-chan 2	Completed	7	2	N/A	2016-01-01	0
Bokusatsu Tenshi Dokuro-chan	Completed	7	4	N/A	2016-01-01	0
Erased	Completed	8	12	2021-07-23	2021-07-25	0
Beelzebub	Completed	7	60	N/A	2014-01-01	0
Baccano! Specials	Completed	7	3	N/A	2015-01-01	0
Astarotte no Omocha!	Completed	5	12	N/A	2012-01-01	0
Angel Beats!	Completed	7	13	N/A	2013-01-01	0
Akikan!	Completed	7	12	N/A	2014-01-01	0
Acchi Kocchi: Place=Princess	Completed	6	1	2014-09-03	2016-09-03	0
Yoru wa Mijikashi Arukeyo Otome	Completed	8	1	N/A		0
Tonari no Totoro	Completed	8	1	2016-01-01	2016-01-01	0
Tokyo Ghoul	Completed	8	12	2015-01-01	2015-01-01	0
Steins;Gate: Oukoubakko no Poriomania	Completed	7	1	2014-01-01	2014-01-01	0
Steins;Gate: Fuka Ryouiki no Déjà vu	Completed	7	1	2014-01-01	2014-01-01	0
Sen to Chihiro no Kamikakushi	Completed	8	1	2016-01-01	2016-01-01	0
Rozen Maiden: Träumend	Completed	8	12	N/A	2013-01-01	0
Rozen Maiden	Completed	8	12	N/A	2013-01-01	0
ReLife	Completed	10	13	2021-08-01	2021-08-04	0
Welcome to the N.H.K	Completed	8	24	N/A	2014-01-01	0
Midori no Hibi	Completed	6	13	N/A	2013-01-01	0
Mangaka-san to Assistant-san to	Completed	7	12	2014-04-08	2014-06-24	0
Mahou Shoujo Madoka☆Magica Movie: Eien no Monogatari	Completed	8	1 2014-01-01	2014-01-01	0
Lupin III vs. Detective Conan: The Movie	Completed	8	1	2016-11-22	2016-11-22	0
Kami nomi zo Shiru Sekai	Completed	8	12	N/A	2016-01-01	0
Howl no Ugoku Shiro	Completed	8	1	2016-01-01	2016-01-01	2
Grisaia no Kajitsu	Completed	8	13	N/A	2016-01-01	0
Danganronpa: Kibou no Gakuen to Zetsubou no Koukousei	Completed	8	13	2013-07-05	2013-09-27	0
BTOOOM!	Completed	8	12	N/A	2013-01-01	0
Ben-to	Completed	6	12	N/A	2014-01-01	0
Bakemono no Ko	Completed	7	1	2016-01-01	2016-01-01	0
B Gata H Kei	Completed	7	12	N/A	2014-01-01	0
Astarotte no Omocha! EX	Completed	5	1	2014-09-13	2014-09-13	0
Another	Completed	8	12	N/A	2013-01-01	0
Amnesia	Completed	6	12	N/A	2015-01-01	0
Acchi Kocchi	Completed	8	12	N/A	2015-01-01	0
Zankyou no Terror	Completed	9	11	N/A	2016-01-01	1
Yojouhan Shinwa Taikei	Completed	9	11	N/A	2016-01-01	2
Steins;Gate	Completed	9	24	N/A	2014-01-01	2
Neon Genesis Evangelion	Completed	9	26	N/A	2016-01-01	0
Mahou Shoujo Madoka☆Magica: Hangyaku no Monogatari	Completed	9	1 2014-01-01	2014-01-01	0
Mahou Sensei Negima!	Completed	9	26	N/A	2013-01-01	0
Kotoura-san	Completed	7	12	N/A	2014-01-01	0
Jinrui wa Suitai Shimashita	Completed	9	12	N/A	2014-01-01	0
Danna ga Nani wo Itteiru ka Wakaranai Ken	Completed	9	13	N/A	2016-01-01	0
Baccano!	Completed	9	13	N/A	2014-01-01	0
Akira	Completed	9	1	2016-01-01	2016-01-01	0
Paprika	Completed	10	1	2016-01-01	2016-01-01	2
Kotonoha no Niwa	Completed	10	1	2016-01-01	2016-01-01	0
Kaze Tachinu	Completed	10	1	N/A	N/A	4
FLCL	Completed	10	6	N/A	2016-01-01	0
Umineko no Naku Koro ni	Dropped	N/A	12	N/A	N/A	0
Ping Pong	Dropped	N/A	3	N/A	N/A	0
Kimi no Na wa.	Dropped	N/A	0	N/A	N/A	0
Durarara!!	Dropped	N/A	3	N/A	N/A	0
