manga	status	rate	chapter	start date	finish date	times reread
Candy & Cigarettes	Reading	N/A	42	2022-03-13	N/A	0
A Story About Smoking at the Back of the Supermarket	Reading	N/A	23	2022-06-12	N/A	0
Manchuria Opium Squad	Reading	N/A	40	2022-06-23	N/A	0
Detective Conan	Reading	9	1100	2022-01-21	N/A	0
Hannari Girori no Yoriko-san	Reading	N/A	26	2022-07-18	N/A	0
Spy X Family	Reading	N/A	68	2021-11-04	N/A	0
Asoko de Hataraku Musubu-san	Reading	N/A	58	2022-05-12	N/A	0
Hirayasumi	Reading	N/A	34	2022-06-23	N/A	0
Combini de kimi to no 5 fun kan	Reading	N/A	63	2021-09-25	N/A	0
Okashiratsuki	Reading	N/A	21	2022-08-01	N/A	0
More Than Lovers, Less Than Friends	Reading	N/A	16	2022-07-14	N/A	0
Kaoru Hana wa Rin to Saku	Reading	N/A	22	2022-06-02	N/A	0
Umi ga Hashiru End Roll	Reading	N/A	5	2022-05-31	N/A	0
Minna-sama Etes-vous Prets?	Reading	N/A	4	2022-07-27	N/A	0
Amaama to Inazuma	Completed	N/A	63	2022-07-18	2022-07-18	0
Blossom Days	Reading	N/A	16	2022-07-17	N/A	0
3-gatsu no Lion	Reading	9	193	2022-07-16	N/A	0
Kin no ito	Completed	N/A	10	2022-07-15	2022-07-15	0
Dandadan	Reading	N/A	64	2021-09-27	N/A	0
Mahoromi	Reading	N/A	35	2022-07-11	N/A	0
Yankee-kun to Hakujou Gaaru	Reading	N/A	87	2021-08-07	N/A	0
Mieruko-chan	Reading	7	44	2021-08-20	N/A	0
I am a hero	Completed	7	264	2022-07-01	2022-07-01	0
Asperu Kanojo	Reading	N/A	60	2022-06-01	N/A	0
Marriagetoxin	Reading	N/A	8	2022-06-14	N/A	0
Kimi wa Houkago Insomnia	Reading	N/A	80	2021-10-31	N/A	0
Vampeerz, My Peer Vampires	Reading	N/A	36	2022-04-18	N/A	0
Gaishu-Isshoku	Reading	N/A	35	2022-03-09	N/A	0
Pansuto	Reading	7	62	2022-05-30	N/A	0
Otoyomegatari	Paused	N/A	102	2022-05-16	2022-05-16	0
Deathco	Reading	N/A	39	2022-03-24	N/A	0
Madonna Ga Glass Case No Naka	Completed	7	16	2022-05-02	2022-05-02	0
New Normal	Reading	N/A	18	2022-04-30	N/A	0
MPD Psycho	Reading	N/A	116	2022-03-30	N/A	0
Doll-kara	Dropped	N/A	39	2022-03-20	2022-04-04	0
Real mo Tamaniwa wo Tsuku	Dropped	N/A	107	2021-08-20	2022-04-04	0
Yakuaza to metsuki no warui onna keiji no hamashi	Dropped	N/A	29	2021-09-25	2022-04-04	0
The way of the house husband	Dropped	N/A	87	2021-11-16	2022-04-04	0
That girl is not just cute	Dropped	7	140	2021-08-20	2022-04-04	0
Happy!	Reading	N/A	54	2022-03-25	N/A	0
Girls of the Wild's	Completed	9	260	2022-03-21	2022-03-22	0
Kaibutsu Oujo	Completed	7	87	2022-03-14	2022-03-14	0
Tasogare Otome x Amnesia	Completed	9	45	2022-02-03	2022-02-04	0
Blue Hearts	Plan to read	N/A	0	N/A	N/A	0
Rakujitsu no Pathos	Paused	N/A	86	2021-10-01	2022-01-21	0
Sora ga Haiiro dakara	Plan to read	N/A	0	N/A	N/A	0
Tokyo DTED	Completed	5	25	2022-01-13	2022-01-13	0
If My Wife Became an Elementary School Student	Reading	N/A	50	2021-09-25	N/A	0
Three days of happiness	Completed	7	16.5	2022-01-03	2022-01-03	0
Rainbow	Paused	N/A	52	2021-11-26	2022-01-03	0
Nozoki Ana	Completed	9	117	2021-12-28	2021-12-28	3
Ao no flag	Plan to read	N/A	0	N/A	N/A	0
How to grill our love	Plan to read	N/A	0	N/A	N/A	0
A happy couple	Plan to read	N/A	0	N/A	N/A	0
I''s	Plan to read	N/A	0	N/A	N/A	0
Batou Shoujo	Plan to read	N/A	0	N/A	N/A	0
Hatsukoi Losstime	Plan to read	N/A	0	N/A	N/A	0
Blame!	Plan to read	N/A	0	N/A	N/A	0
Ciguatera	Plan to read	N/A	0	N/A	N/A	0
The galaxy next door	Plan to read	N/A	0	N/A	N/A	0
Okaeri Alice	Plan to read	N/A	0	N/A	N/A	0
Tokyo Revange	Plan to read	N/A	0	N/A	N/A	0
Chi no Wadachi	Dropped	N/A	30	2021-08-01	N/A	0
Shinu hodo Kimi no Shojo ga Hoshii	Paused	N/A	57	2021-08-26	2021-11-21	0
Soshite, Hare ni Naru	Dropped	8	12	2021-08-24	2021-11-21	0
Boku no Yome no Ranbou na Aijyo	Dropped	7	17	2021-08-29	2021-11-21	0
Ojou-sama no Shimobe	Dropped	N/A	57	2021-08-01	2021-11-21	0
Infection	Paused	7	111	2021-07-01	2021-11-21	0
Melancholia	Dropped	N/A	9	2021-09-25	2021-11-21	0
Waltz	Completed	8	1	2021-10-01	2021-10-01	0
Happiness	Completed	10	50	2021-11-01	2021-11-01	1
Sundome	Completed	7	76	2021-10-03	2021-10-04	0
Minamoto-kun Monogatari	Completed	8	358	2021-08-28	2021-09-23	0
Cigarette & Cherry	Paused	N/A	84	2021-09-19	2021-09-22	0
Beastars	Completed	8	196	2021-09-20	2021-09-20	0
Umibe no Onnanoko	Plan to read	N/A	0	N/A	N/A	0
Tokyo ESP	Plan to read	N/A	0	N/A	N/A	0
Subarashii Sekai	Plan to read	N/A	0	N/A	N/A	0
Sakuranbo Syndrome	Plan to read	N/A	0	N/A	N/A	0
Sakura Tsuushin	Plan to read	N/A	0	N/A	N/A	0
Ran to Haiiro no Sekai	Paused	9	29	2019-10-01	N/A	0
Nana	Plan to read	N/A	0	N/A	N/A	0
Kimi wa Pet	Plan to read	N/A	0	N/A	N/A	0
Kanojo ni Naru Hi	Plan to read	N/A	0	N/A	N/A	0
Boku to kanojo no xxx	Plan to read	N/A	0	N/A	N/A	0
Berserk	Plan to read	N/A	0	N/A	N/A	0
Banana Fish	Plan to read	N/A	0	N/A	N/A	0
Ai-sensei wa Wakaranai	Plan to read	N/A	0	N/A	N/A	0
The promised neverland	Paused	7	34	2019-05-22	N/A	0
Zettai Karen Children	Dropped	N/A	14	2017-01-01	N/A	0
Zetman	Dropped	N/A	15	2017-01-01	N/A	0
Yuragi-sou no Yuuna-san	Dropped	N/A	18	2017-01-01	N/A	0
Yume no Omocha Koujo	Dropped	N/A	1	2016-01-01	N/A	0
Yellow Gate!	Dropped	N/A	11	2017-01-01	N/A	0
Yandere Kanojo	Dropped	N/A	2	2017-01-01	N/A	0
Yamanko!	Dropped	N/A	3	2016-01-01	N/A	0
Virgin Na Kankei	Dropped	N/A	24	2017-01-01	N/A	0
Terra Formars	Dropped	N/A	30	2017-01-01	N/A	0
Tadashii Kodomo no Tsukurikata!	Dropped	N/A	14	2017-01-01	N/A	0
Shurabara!	Dropped	N/A	4	2017-01-01	N/A	0
Shi ga Futari wo Wakatsu Made	Dropped	N/A	10	2017-01-01	N/A	0
Sayonara Zetsubou Sensei	Paused	N/A	25	2016-01-01	N/A	0
Saikyou Densetsu Kurosawa	Dropped	N/A	3	2017-01-01	N/A	0
Ryuushika Ryuushika	Plan to read	N/A	0	N/A	N/A	0
RaW Hero	Dropped	N/A	1	2021-09-18	N/A	0
Omamori Himari	Dropped	N/A	4	2017-01-01	N/A	0
Nijigahara Holograph	Plan to read	N/A	0	N/A	N/A	0
Nana to Kaoru	Dropped	N/A	13	2017-01-01	N/A	0
Mob Psycho 100	Paused	N/A	3	2016-01-01	N/A	0
Mikami-sensei no Aishikata	Dropped	N/A	4	2017-01-01	N/A	0
Me-Teru no Kimochi	Dropped	N/A	5	2017-01-01	N/A	0
Masamune-kun no Revenge	Dropped	N/A	22	2017-01-01	N/A	0
Life is Money	Dropped	N/A	8	2017-01-01	N/A	0
Kimi no Iru Machi	Dropped	N/A	1	2016-01-01	N/A	0
Kanokon	Dropped	N/A	3	2017-01-01	N/A	0
Phantom Blood	Dropped	N/A	21	2020-01-01	N/A	0
Jisatsu Circle	Dropped	N/A	3	2016-01-01	N/A	0
Kyoufu Hakubutsukan	Dropped	N/A	1	2016-01-01	N/A	0
Hetakoi	Dropped	N/A	8	2017-01-01	N/A	0
Hayate no Gotoku!	Dropped	5	20	2017-01-01	N/A	0
Golden Time	Dropped	N/A	6	2017-01-01	N/A	0
Femme Fatale	Dropped	N/A	1	2016-01-01	N/A	0
Crayon Days	Dropped	N/A	2	2016-01-01	N/A	0
Chikan Otoko	Dropped	N/A	14	2016-01-01	N/A	0
Boku wa Mari no Naka	Dropped	4	56	2017-01-01	N/A	0
Black Jack	Dropped	N/A	2	2016-01-01	N/A	0
Billionarie Girl	Dropped	N/A	12	2017-01-01	N/A	0
Baby Steps	Dropped	N/A	5	2017-01-01	N/A	0
B Gata H Kei	Dropped	N/A	1	2016-01-01	N/A	0
Ansatsu Kyoushitsu	Dropped	N/A	20	2017-01-01	N/A	0
Amagami: Precious Diary	Dropped	N/A	12	2017-01-01	N/A	0
Ajin	Dropped	N/A	1	2016-01-01	N/A	0
87 Clockers	Dropped	6	2	2019-01-01	N/A	0
/Blush-DC	Paused	N/A	3	N/A	N/A	0
Golden Boy	Dropped	6	70	2018-01-01	N/A	0
Tonikaku Kawaii	Dropped	7	28	2021-08-01	N/A	0
Innocent	Dropped	7	8	2018-01-01	N/A	0
Yamada-kun to 7-nin no Majo	Dropped	5	214	2017-01-01	N/A	0
Tenkuu Shinpan	Dropped	6	136	2017-01-01	N/A	0
Real Account	Dropped	5	32	2016-09-12	N/A	0
Pastel	Plan to read	N/A	0	N/A	N/A	0
Oyasumi Punpun	Paused	7	50	2015-01-01	N/A	0
Love So Life	Paused	7	60	2014-01-01	N/A	0
Koe de Oshigoto!	Paused	5	42	2013-01-01	N/A	0
Jigoku no Alice	Paused	N/A	17	N/A	2017-01-01	0
Futari Ecchi	Paused	N/A	0	N/A	N/A	0
Bokura wa Minna Kawaisou	Paused	N/A	0	N/A	N/A	0
Blade Play	Dropped	5	59	N/A	2017-01-01	0
Domestic na Kanojo	Paused	5	170	2018-01-01	N/A	0
Toshiue no Hito	Completed	5	41	N/A	2017-01-01	0
Sukima Suki	Completed	6	10	2016-08-18	2016-08-19	0
Sakamoto desu ga?	Completed	7	24	2016-04-08	2016-04-09	0
Saenai Heroine no Sodatekata	Completed	5	15	N/A	2016-01-01	0
Ore x Yome	Completed	5	6	N/A	2016-01-01	0
Mirai Nikki: Paradox	Completed	5	5	N/A	2016-01-01	0
Mirai Nikki: Mosaic	Completed	6	5	N/A	2016-01-01	0
Kotonoha no Niwa	Completed	5	7	2020-01-01	2020-01-01	0
Chocolate to Kase-san.	Completed	5	1	2016-07-28	2016-07-28	0
Bocchi na Bokura no Renai Jijou	Completed	5	14	2016-01-01	2016-01-01	0
Watashi no Kuro-chan	Completed	8	1	2020-01-01	2020-01-01	0
Uzumaki	Completed	8	19	N/A	2015-01-01	1
Tomie	Completed	8	20	N/A	2016-01-01	1
Sweet Poolside	Completed	8	8	2017-01-01	2017-01-01	0
Steins;Gate	Completed	7	15	2020-01-01	2020-01-01	0
Shinigami-sama to 4-nin no Kanojo	Completed	6	18	2016-08-14	2016-08-14	0
Portus	Completed	7	11	N/A	2016-01-01	0
Papa no Iukoto wo Kikinasai!	Completed	6	15	N/A	2016-01-01	0
Otaku no Musume-san	Completed	5	63	N/A	2016-01-01	0
Nozo x Kimi	Completed	6	63	N/A	2016-01-01	1
Netsutai no Citron	Completed	6	15	N/A	2016-01-01	0
Kurogane	Completed	6	70	N/A	2016-01-01	0
Kanojo no Kagi wo Akeru Houhou	Completed	6	70	N/A	2017-01-01	0
Prision School	Completed	7	279	2021-07-01	2021-07-04	0
Judge	Completed	6	32	N/A	2016-01-01	0
Jigokuren	Completed	5	18	N/A	2016-01-01	0
Inugami-san to Sarutobi-kun wa Naka ga Warui.	Completed	6	17	N/A	2017-01-05	0
Ibitsu	Completed	7	15	N/A	2016-01-01	0
Hideout	Completed	7	9	N/A	2016-01-01	0
Gyo	Completed	7	21	N/A	2016-01-01	0
Doubt	Completed	6	21	N/A	2016-01-01	0
Domina no Do!	Completed	6	41	N/A	2016-01-01	0
Densha Otoko	Completed	6	27	N/A	2016-01-01	0
Bus Hashiru	Completed	8	7	2017-04-21	2017-04-21	0
Ai Kora	Completed	7	14	N/A	2015-01-01	0
Usagi Drop	Completed	7	62	N/A	2016-08-18	0
Simyeonui Haneul	Completed	8	113	2020-01-01	2020-01-01	0
Sabishisugite Rezu Fuzoku ni Ikimashita Report	Completed	8	6	2019-01-01	2019-01-01	0
Ookami Kodomo no Ame to Yuki	Completed	7	8	2020-01-01	2020-01-01	0
Nazo no Kanojo X	Completed	7	96	N/A	2014-01-01	1
Monster	Completed	8	162	N/A	2016-01-01	0
Litchi☆Hikari Club	Completed	7	9	N/A	2016-01-01	0
Kodomo no Jikan	Completed	6	93	N/A	2016-01-01	0
Kimi no Na wa.	Completed	7	3	2020-01-01	2020-01-01	0
Kami nomi zo Shiru Sekai	Completed	8	271	N/A	2016-08-14	1
Gantz	Completed	8	383	N/A	2016-01-01	0
Futari Ecchi for Ladies	Completed	7	12	N/A	2016-01-01	0
Deadman Wonderland	Completed	8	58	N/A	2020-01-01	0
Erased	Completed	8	41	2016-08-30	2016-08-31	0
xxxHolic	Completed	9	213	N/A	2019-01-01	1
ReLife	Completed	10	237	N/A	2018-01-01	0
Pluto	Completed	9	65	N/A	2017-01-01	0
Omoide Emanon	Completed	9	9	N/A	2017-01-01	0
My Girl	Completed	7	44	2017-04-20	2017-04-20	0
Miman Renai	Completed	6	30	2016-07-25	2016-11-06	1
Memento Mori	Completed	9	8	N/A	2017-01-01	0
Kanojo to Kanojo no Neko	Completed	9	4	N/A	2017-01-01	0
Itoshi no karin	Completed	9	20	N/A	2017-01-01	0
Ibitsu (Okada)	Completed	9	63	2016-07-25	2017-04-03	0
Hotal	Completed	9	5	N/A	2016-09-10	0
Homunculus	Completed	9	166	N/A	2016-09-17	0
Sasurai Emanon	Completed	9	8	N/A	2017-01-01	0
Chainsaw Man	Completed	10	97	2021-08-28	2021-08-30	0
Battle Royale	Completed	8	119	N/A	2015-01-01	0
Aku no hana	Completed	9	58	N/A	2016-01-01	0
21st Century Boys	Completed	9	16	N/A	2017-01-01	0
Billy Bat	Completed	10	165	2016-09-13	2016-09-17	0
20th Century Boys	Completed	10	249	N/A	2017-01-01	0
Shounen yo Taishi wo Dake!	Dropped	N/A	10	N/A	N/A	0
Mayonaka Lolita	Dropped	2	0	2016-07-28	N/A	0
Kuzu no Honkai	Plan to read	N/A	0	N/A	N/A	0
Koibana Onsen	Dropped	N/A	51	2013-01-01	N/A	0
Kimi wa Midara na Boku no Joou	Dropped	N/A	8	2015-01-01	N/A	0
Kanojo wa Sore wo Gaman Dekinai	Completed	5	13	N/A	2015-01-01	0
Kanojo to Camera to Kanojo no Kisetsu	Paused	N/A	1	2016-11-02	N/A	0
Kaguya-sama wa Kokurasetai	Dropped	N/A	3	2017-01-01	N/A	0
Hurejasik	Dropped	N/A	0	2017-01-01	N/A	0
Bitter Virgin	Dropped	N/A	1	2016-11-02	N/A	0
Atom: The Beginning	Paused	N/A	27	2020-01-01	N/A	0
Moujuusei Shounen Shoujo	Dropped	N/A	14	2017-01-01	N/A	0
Sore ga Kanojo no Seigi nara	Dropped	N/A	2	2017-04-20	N/A	0
Mujaki no Rakuen	Dropped	N/A	46	2015-01-01	N/A	0
Jinmen	Paused	N/A	11	2016-01-01	N/A	0
Jigokuren: Death Life	Dropped	N/A	2	2016-11-02	N/A	0
Suicide Parabellum	Completed	8	11	2021-08-10	2021-08-10	0
Shounen no Abyss	Paused	7	61	2021-08-10	N/A	0
Magic Kaito	Paused	7	33	2015-01-01	N/A	0
Fragile	Dropped	N/A	1	2016-01-01	N/A	0
Dead tube	Dropped	N/A	28	2016-01-01	N/A	0
Arachnid	Dropped	N/A	114	2016-01-01	N/A	0
Ana Satsujin	Dropped	6	114	N/A	N/A	0
Seishun Buta Yarou wa Bunny Girl-senpai no Yume wo Minai	Dropped	7	10	N/A	2016-01-01 0
Gantz:G	Paused	8	17	N/A	2016-01-01	0
Denpa Kyoushi	Paused	8	142	N/A	N/A	0
Sasurai Emanon	Paused	9	21	N/A	2016-01-01	0
Ore no Himekutsu wo Haite kure	Paused	9	10	N/A	2016-01-01	0
